{
  "basics": {
    "name": "Alexander Pitkin",
    "label": "Fullstack Python/Django developer",
    "email": "pitkinalexander@gmail.com",
    "phone": "+375 33 3242335"
  },
  "education": [
    {
      "institution": "Belarusian state university of informatics and radioelectronics",
      "area": "Master of informatics and and computing, The chair electronic computing machines",
      "studyType": "Minsk, Belarus",
      "startDate": "2015-07-01",
      "endDate": "2017-06-30"
    },
    {
      "institution": "Belarusian state university of informatics and radioelectronics",
      "area": "Systems engineer, The chair electronic computing machines",
      "studyType": "Minsk, Belarus",
      "startDate": "2010-09-01",
      "endDate": "2015-06-30"
    },
    {
      "institution": "The Highest State College of Communications, Vitebsk branch",
      "area": "Technician on telecommunications, Software telecommunications networks",
      "studyType": "Vitebsk, Belarus",
      "startDate": "2006-09-01",
      "endDate": "2010-06-30"
    }
  ],
  "skills": {
    "languages": [
      "Python",
      "Javascript/TypeScript",
      "Bash",
      "CSS (LESS/SASS/Stylus)",
      "HTML",
      "C/C++/C#/Java/Delphi"
    ],
    "frameworks": [
      "Django/Django Rest Framework",
      "FastAPI",
      "Flask",
      "SQLAlchemy/GeoAlchemy 2",
      "NodeJS",
      "AngularJs/Angular 2+",
      "RxJS",
      "React Native/Android SDK"
    ],
    "systems": [
      "Linux",
      "Windows"
    ],
    "databases": [
      "SQL",
      "Postgres",
      "MSSQL",
      "MySQL",
      "Redis",
      "Memcached",
      "ElasticSearch"
    ],
    "managementTools": [
      "Asana",
      "Trello",
      "JIRA"
    ]
  },
  "experience": [
    {
      "company": "iTechArt",
      "position": "Senior fullstack developer",
      "startDate": "2017-01-01",
      "endDate": "Present",
      "summary": "Software Engineer"
    },
    {
      "company": "Nord-Soft",
      "position": "Python/Django developer",
      "startDate": "2014-01-01",
      "endDate": "2017-12-31",
      "summary": "Creating and maintenance web sites using django. Creating web site API using Django Rest Framework, Database development. Working with frontend (Javascript, JQuery, AngularJS/Angular2+, CSS/LESS)"
    }
  ],
  "projects": [
    {
      "name": "Real Estate Portal printing service",
      "description": "Project Web service to make pdf for a given URL",
      "stack": "NodeJS, Express, Puppeteer, bull",
      "role": "Senior Software Engineer",
      "responsibilities": [
        "Developed express API",
        "Developed Puppeteer integration",
        "Developed Docker and CircleCI integration",
        "Added API tests and compare PDF tests"
      ]
    },
    {
      "name": "Real Estate Portal API microservices",
      "description": "Various API microservices for real estate portal",
      "stack": "Django, Flask, FastAPI, SQLAlchemy, Postgres, Postgis, Redis, Docker, Kubernetes",
      "role": "Senior Software Engineer",
      "responsibilities": [
        "Implement API microservice",
        "Split monolithic application into microservices",
        "Develop backend packages to reuse in different microservices",
        "Create complicated geospatial queries to fetch required data",
        "Setup service integration"
      ]
    },
    {
      "name": "Leading global eGift card platform",
      "description": "Project aims to simplify and enhance the gift-giving experience by allowing users to purchase, send, and receive digital gift cards from a wide range of popular retailers and brands",
      "stack": "Django, FastAPI, AWS, AWS Lambda, Celery, Postgres, pytest, Graphene-Django, SOAP, Stripe",
      "role": "Senior Software Engineer",
      "responsibilities": [
        "Build an API integration between project core and different 3rd party gift card providers",
        "Develop the microservice to improve site performance and isolate API integration logic",
        "Write highly testable code with different test cases and live tests which check the health of external services",
        "Constant communication with gift providers technical experts create integration with private APIs"
      ]
    },
    {
      "name": "Real Estate Portal: Data Intelligence Board",
      "description": "A Web application that allows users to obtain price valuations and prediction for the real estate property, understand the market, explore the surroundings (location & nearby)",
      "stack": "AngularJs, Angular, Django, Flask, SQLAlchemy, HTML 5, CSS3, Alembic, Docker, Mapbox, Google Maps API, PostGIS, PostgreSQL",
      "role": "Software Engineer",
      "responsibilities": [
        "Implemented a new version of the Web API with Flask and SQLAlchemy",
        "Reworked big subsets of the data model and updated the database schema accordingly",
        "Developed and implemented the front-end application",
        "Migrated a big live application from AngularJS to Angular2",
        "Developed a variety of map integration with user interaction support",
        "Integrated the app with other services"
      ]
    },
    {
      "name": "Driving licence exam booking system",
      "stack": "Django, React.js, Celery, PostgreSQL, Redis, Docker, Traefik",
      "role": "Senior Software Engineer",
      "responsibilities": [
        "Developed the back-end",
        "Designed the data model and implemented the database schema",
        "Implemented the deployment part and deployed the application to server",
        "Added the Celery application to run periodical time slots booking",
        "Optimized application performance"
      ]
    },
    {
      "name": "Web portal for management students housing",
      "description": "The portal handles the entire student leasing experience and provides easy tools to help managers track assignments, payments, and communication",
      "role": "Software Engineer",
      "responsibilities": [
        "Back-end development",
        "Models design",
        "Logic/architecture design",
        "Django views",
        "REST API for 3rd party applications, mobile, and front-end",
        "Payment system integration",
        "DB and site loading optimization",
        "Front-end development",
        "CSS/HTML",
        "Angular templates development",
        "Back-end Integration"
      ],
      "technologies": [
        "Python/Django",
        "Celery",
        "AngularJS",
        "HTML/CSS",
        "JavaScript/Coffescript",
        "jQuery",
        "OAuth",
        "PotgreSQL",
        "Stripe API"
      ]
    },
    {
      "name": "User generated news portal",
      "description": "Allow users to rate news and change public news ratings",
      "role": "Software Engineer",
      "responsibilities": [
        "Back-end development",
        "Models design",
        "Logic/architecture design",
        "Django views",
        "REST API for front-end",
        "Celery tasks",
        "Front-end development",
        "CSS/HTML",
        "Angular templates development",
        "Back-end Integration"
      ],
      "technologies": [
        "Python/Django",
        "AngularJS",
        "Celery",
        "HTML/CSS",
        "JavaScript",
        "jQuery",
        "jQuery.ui",
        "PotgreSQL",
        "Redis"
      ]
    },
    {
      "name": "Person Heath Assistance",
      "description": "User personal health assistance application. Application encourages healthy user habits",
      "role": "Software Engineer",
      "responsibilities": [
        "Back-end development",
        "Database development and maintenance",
        "Backend and frontend implementation - add new features",
        "Bug fixes",
        "DB and site loading optimization",
        "Implementing Django templates"
      ],
      "technologies": [
        "Python/Django",
        "HTML/CSS",
        "JavaScript",
        "jQuery",
        "jQuery.ui",
        "Backbone",
        "Celery",
        "MSSQL Server",
        "Google Cloud Messaging"
      ]
    }
  ],
  "languages": [
    {
      "language": "Russian",
      "fluency": "native"
    },
    {
      "language": "English",
      "fluency": "upper-intermediate"
    }
  ],
  "certificates": [
    {
      "title": "Cisco Certified Network Associate(CCNA Routing and Switching (v5.0))",
      "year": "2015",
      "authority": "Cisco Networking academy"
    },
    {
      "title": "Linux development courses",
      "year": "2014",
      "authority": "EPAM"
    },
    {
      "title": "Android Development training",
      "year": "2013",
      "authority": "ForteKnowledge"
    },
    {
      "title": "Cisco Certified Network Associate (CCNA1, CCNA2)",
      "year": "2008-2009",
      "authority": "Cisco Networking academy — Toronto, CANADA"
    },
    {
      "title": "Programming in python",
      "year": "2011",
      "authority": "INTUIT NATIONAL OPEN UNIVERSITY",
      "url": "http://www.intuit.ru/verifydiplomas/00119534"
    }
  ],
  "links": [
    {
      "name": "My Github profile",
      "url": "https://github.com/peleccom"
    },
    {
      "name": "My LinkeIn profile",
      "url": "https://www.linkedin.com/pub/alexander-pitkin/57/1a4/9b2"
    }
  ],
  "meta": {
    "email": "pitkinalexander@gmail.com",
    "phone": "+375 33 324 23 35",
    "age": "33",
    "location": "Minsk, Belarus",
    "date": "2023"
  }
}

